…
## # A tibble: 3 x 4
## # Groups:   orientation [?]
##   orientation `age > 20` my_mean n_observations
##   <chr>       <lgl>        <dbl>          <int>
## 1 hetero      F             54.5              2
## 2 hetero      T             60.0              5
## 3 homo        T             64.0              7

homo %>% 
  group_by(orientation, age > 20) %>% 
  summarise(my_mean = mean(s.duration.ms), n_observations = n()) %>% 
  left_join(homo)

## # A tibble: 21 x 13
## # Groups:   orientation [?]
##    orientation `age > 20` my_mean n_observations speaker s.duration.ms
##    <chr>       <lgl>        <dbl>          <int> <chr>           <dbl>
##  1 hetero      F             54.5              2 A                61.4
##  2 hetero      F             54.5              2 B                63.9
##  3 hetero      F             54.5              2 G                65.4
##  4 hetero      F             54.5              2 H                62.5
##  5 hetero      F             54.5              2 L                53.3
##  6 hetero      F             54.5              2 M                45.1
##  7 hetero      F             54.5              2 N                57.7
##  8 hetero      T             60.0              5 A                61.4
##  9 hetero      T             60.0              5 B                63.9
## 10 hetero      T             60.0              5 G                65.4
## # ... with 11 more rows, and 7 more variables: vowel.duration.ms <dbl>,
## #   average.f0.Hz <dbl>, f0.range.Hz <dbl>, perceived.as.homo <int>,
## #   perceived.as.hetero <int>, perceived.as.homo.percent <dbl>, age <int>
…
